{
    "80002": [
        {
            "sensor_name": "SGX4DT_H2S",
            "sensor_uid": 9001,
            "multiplier": 1.0,
            "offset": 0.0
        },
        {
            "sensor_name": "SGX4DT_CO",
            "sensor_uid": 9002,
            "multiplier": 1.0,
            "offset": 0.0
        },
        {
            "sensor_name": "SGX7NH3_NH3",
            "sensor_uid": 10001,
            "multiplier": 1.0,
            "offset": 0.0
        },


        {
            "sensor_name": "ASMLC_CO",
            "sensor_uid": 11001,
            "multiplier": 1.0,
            "offset": 0.0,
            "Rl": 30.0
        },
        {
            "sensor_name": "ASMLK_CH4",
            "sensor_uid": 12001,
            "multiplier": 1.0,
            "offset": 0.0,
            "Rl": 300.0
        },
        {
            "sensor_name": "MICS6814_NH3",
            "sensor_uid": 1004,
            "multiplier": 1.0,
            "offset": 0.0,
            "Rl": 110.0
        },
        {
            "sensor_name": "MICS6814_CO",
            "sensor_uid": 1005,
            "multiplier": 1.0,
            "offset": 0.0,
            "Rl": 200.0
        },
        {
            "sensor_name": "MICS6814_NO2",
            "sensor_uid": 1006,
            "multiplier": 1.0,
            "offset": 0.0,
            "Rl": 6.8
        },
        {
            "sensor_name": "TGS2602_VOC",
            "sensor_uid": 6002,
            "multiplier": 1.0,
            "offset": 0.0,
            "Rl": 36.0
        },


        {
            "sensor_name": "GP2Y1010AU0F_PM",
            "sensor_uid": 5002,
            "multiplier": 1.0,
            "offset": 0.0
        },

        {
            "sensor_name": "SHT21_TEMPERATURE",
            "sensor_uid": 7002,
            "multiplier": 1.0,
            "offset": 0.0
        },
        {
            "sensor_name": "SHT21_HUMIDITY",
            "sensor_uid": 7002,
            "multiplier": 1.0,
            "offset": 0.0
        },
        {
            "sensor_name": "MPL3115A2_TEMPERATURE",
            "sensor_uid": 8002,
            "multiplier": 1.0,
            "offset": 0.0
        },
        {
            "sensor_name": "MPL3115A2_ABS_PRESSURE",
            "sensor_uid": 8002,
            "multiplier": 1.0,
            "offset": 0.0
        }
        
    ] 
}